465694 749797 509
253370 34078 443
95076 931499 525
453609 214640 449
799271 520537 509
617632 49997 470
41952 900965 525
348300 708120 509
513001 28789 470
808821 959393 525
99740 875359 525
279851 708851 509
838217 519433 525
231695 529481 470
663763 405360 509
670331 134432 509
185511 144324 383
25679 252071 443
957210 301295 525
716633 523219 509
200735 256630 443
495712 956687 525
853410 413048 525
324621 295377 384
903299 238036 525
534519 233352 470
612914 769960 509
773833 578481 509
798051 708724 468
879378 776777 525
460334 150300 449
824681 349725 509
356167 748556 509
223675 432573 449
114389 9526 354
435571 279759 449
710000 555767 509
780548 553791 509
986684 623703 525
355158 157204 443
966941 714415 525
576586 849502 525
584085 763941 509
362924 747467 509
699905 581075 509
964788 840602 507
634541 52806 509
415481 298407 449
977487 31522 525
782259 646756 504
756647 75235 509
222123 326632 443
577585 983038 525
423617 12321 449
69443 765222 509
800410 306214 509
948169 281450 525
384164 36967 443
58139 405243 443
986183 560134 525
757112 127372 509
888361 943166 507
153058 558546 470
821342 697025 504
5333 283755 443
757867 170720 509
585061 200091 470
94901 799332 509
207987 917169 525
591115 310394 470
310923 182344 443
386573 312586 441
631006 148649 509
989943 753768 525
447703 855310 525
334094 150499 443
698843 18305 509
349669 147132 443
850082 137315 525
298764 237105 407
136621 855881 525
994070 941366 458
995747 648769 525
584070 999365 525
528908 146802 470
375125 718604 509
379625 121313 443
449763 869317 525
546093 296208 470
956664 627236 525
681564 700865 442
713013 808745 468
100735 757272 509
137243 248917 443
907137 126558 525
561911 378041 470
164330 575842 470
558953 802345 509
369973 943930 525
376272 271504 441
42319 400999 443
650069 569438 509
727919 128726 509
479568 411740 444
36684 360195 443
195226 908255 525
977280 32952 525
66096 321051 443
235575 285556 407
647168 604943 509
265171 892070 525
369108 163294 443
415392 635608 509
55832 85694 351
571951 666665 509
947337 725321 525
102993 595379 470
169084 26737 383
105393 827787 509
540232 402321 470
762063 439910 509
167314 599390 470
594261 18712 470
238451 573692 470
120471 977848 525
963464 632621 525
481836 335136 449
505045 89124 449
562339 74769 470
123990 820024 509
552740 882227 525
62308 124596 354
460645 914361 525
903809 753675 525
35461 206243 383
376704 767848 509
158217 889373 525
123156 629540 509
80240 387589 443
496883 581457 470
149492 24650 375
889254 695219 525
972000 298608 525
253360 382158 441
779465 962543 525
780056 725339 468
31018 540411 470
746901 6548 509
611296 961887 525
107734 31726 354
513406 445251 470
12779 34599 311
270542 449228 449
592979 300597 470
596325 828514 509
424674 198558 449
791970 623245 509
899471 824997 525
340611 835768 509
166808 9378 383
141923 464088 449
80210 30635 351
57940 337702 443
381009 485294 449
183317 977160 525
41199 908961 525
667696 194510 509
968701 1424 525
27443 558999 470
397252 133461 443
251784 785172 509
842038 933734 476
974387 202724 525
266358 183048 443
33384 763679 509
73089 966114 525
303943 121583 443
394103 430956 449
364533 815704 509
74314 866886 525
328920 988055 525
34434 54053 340
577326 257512 470
36266 757992 509
565835 329890 470
590490 600521 403
902957 194942 525
232418 800687 509
142397 457589 449
753680 390111 509
628901 693767 442
182047 394579 443
648904 183127 509
810300 834531 450
240354 339571 407
967734 850464 507
666686 545906 509
179521 319488 443
666894 886583 525
575270 175539 470
841655 661643 525
978931 345625 525
104582 875067 525
746868 152693 509
590901 899594 525
740827 330615 509
904620 864182 445
572832 254479 470
416828 406851 449
542842 14475 470
827894 586294 509
998603 445225 525
238630 538685 470
647914 309197 509
844911 706732 525
165770 959950 525
591236 886114 525
341771 105834 443
898496 265866 525
160605 331610 443
608867 507133 470
787341 102145 509
896874 214917 525
480878 420222 444
382602 772477 509
339237 161056 443
206152 836052 509
181776 781817 509
238776 901552 525
420819 324107 449
346832 494638 449
751681 592031 509
395879 531976 470
409124 443765 449
896400 150352 525
470506 623126 470
783565 750169 468
467820 885829 525
656882 852341 525
192795 126548 383
218200 649112 509
383177 39506 443
735418 61915 509
429586 575522 470
688623 366365 509
998437 397927 525
102468 18756 351
263218 159835 443
540469 735393 509
957682 737599 525
706568 2929 509
489678 689133 509
126087 849920 525
612269 70089 470
720280 651305 504
95709 429014 449
911674 13240 525
339997 310116 384
957214 533744 525
424772 925159 525
854048 252392 525
695826 842852 525
607648 100560 470
954834 858308 507
928642 257937 525
262568 203979 443
863294 511506 525
917181 205218 525
632484 48664 509
879747 163792 525
871024 271301 525
482983 120647 449
312901 660673 509
307027 650075 509
621130 980790 525
53917 477774 449
236190 845877 525
881103 370758 525
293945 795958 509
593491 799200 509
295328 110140 443
653115 365469 509
326724 792279 509
823595 482874 509
669560 942531 525
793892 704990 468
574605 405998 470
224557 43501 386
305805 228375 443
707935 307002 509
628432 793810 504
324942 923929 525
783549 959848 525
16463 887505 525
265377 369691 441
424107 831664 509
581349 661767 509
53855 387257 443
367663 694499 509
79628 404153 443
