516304 539898 439
948159 646968 525
147844 753824 509
406535 296276 441
228458 353268 443
280218 956106 525
197665 301589 443
17277 398878 443
657423 991530 525
345429 21258 443
656286 407234 509
40962 106094 351
778981 839556 525
793653 777811 437
24161 903736 525
11746 176391 383
848031 885310 432
632554 913578 525
662904 590094 509
819057 242734 509
870916 650896 525
142288 810721 509
738010 603827 509
202031 268187 443
195995 700364 509
974165 838203 507
771062 390208 509
810087 866745 525
398139 688399 509
16610 926141 525
610355 361675 470
464066 373748 449
458759 519806 470
794824 410872 509
670165 517675 509
579022 967285 525
201344 295705 443
587477 265727 470
980695 20974 525
878922 713570 525
638178 159652 509
287874 951685 525
665861 611707 509
253136 249557 332
702416 225499 509
400333 628924 509
132507 237825 443
951570 616210 525
21092 509363 449
555105 414874 470
578810 255140 470
131867 110748 349
754273 696943 504
7460 435918 449
608316 95475 470
427697 999670 525
926021 638243 525
716754 929485 525
145974 926757 525
95499 953198 525
526490 104887 470
292994 75233 443
737310 473728 509
903583 795001 525
686132 149294 509
506614 346085 449
417127 666059 509
8301 414114 449
340592 948347 525
998430 90115 525
488211 295466 449
384071 466618 449
195741 812685 509
30527 861939 525
867865 705135 525
447066 551083 470
912076 392151 525
442489 654991 509
702245 738575 504
208126 441912 449
242013 579485 470
555459 263572 470
523659 566729 452
846956 995084 507
915548 3718 525
305131 271051 389
52236 460417 449
591922 469618 470
927360 84594 525
756049 834238 468
419003 720966 509
518645 518478 271
820343 441448 509
983854 510356 525
394352 293424 441
915940 225444 525
506961 195086 449
776393 520844 509
120804 746064 509
393348 760274 509
360303 168063 443
398707 46819 443
572619 306839 470
125883 266419 443
846342 698063 525
899558 343513 525
414732 11072 449
661586 296157 509
948403 888769 507
271746 588786 470
553171 82533 470
282123 440634 449
691770 830596 504
183990 185003 316
805059 337391 509
85679 452650 449
377478 291971 441
389865 438807 449
454140 232555 449
443 41939 324
306787 465570 449
434044 491026 444
990974 536336 525
461296 229507 449
487694 5984 449
94837 834298 509
747985 430495 509
241925 145039 443
257974 799525 509
123709 102517 354
169392 601070 470
799423 896348 525
373041 702508 509
893867 146984 525
434847 977211 525
668948 664807 442
47907 917527 525
376529 984315 525
678239 127926 509
823055 517850 509
999668 539211 525
319440 301172 384
798354 784669 468
853949 654281 525
232958 860715 525
36032 880348 525
161402 994361 525
311030 37579 443
254272 74244 443
671590 283279 509
258046 58828 443
171363 235414 443
662407 187565 509
902274 529274 525
825397 513711 509
287755 298967 389
465807 461742 369
7876 713746 509
672160 342534 509
643212 246807 509
332365 995868 525
202254 120618 383
347993 603412 470
71328 534523 470
95453 218967 386
21382 751343 509
511078 714320 509
315443 870600 525
196644 369155 443
241478 649025 509
910609 841147 476
150796 889486 525
681117 621822 509
793477 632807 504
402309 366951 436
922054 653432 525
859722 430826 525
912530 69702 525
820038 871338 525
220453 214081 386
570305 80094 470
803368 251113 509
11420 27600 308
328534 165690 443
30121 73802 340
158349 796316 509
834045 609261 509
464827 777857 509
146566 5646 375
999948 222862 525
46361 893697 525
276384 219953 443
117752 434837 449
851207 643144 525
917298 237325 525
134735 442263 449
648966 646660 341
466413 789344 509
37256 46271 314
965104 528395 525
221570 61551 386
535022 145986 470
532443 366145 470
126787 898303 525
936633 763244 525
253093 48809 443
322596 298969 384
591157 900303 525
990767 431311 525
723627 980867 525
433281 407925 449
852545 12935 525
905317 62226 525
970080 364995 525
979143 406919 525
261822 156712 443
992328 315122 525
79457 362889 443
599805 321031 470
577955 405136 470
75961 436639 449
650438 55939 509
371429 68236 443
255755 350439 441
802325 112544 509
454065 702157 509
478852 498744 426
645601 170078 509
430236 874605 525
439569 219652 449
728571 520469 509
60023 861074 525
166852 506825 449
77753 191125 383
739353 49472 509
835109 357171 509
59919 683690 509
694185 427294 509
83263 741743 509
808842 628074 504
864815 123530 525
719836 374153 509
104566 463718 449
50513 19381 324
607608 486045 470
756882 728088 424
467724 303626 449
271319 764751 509
362818 994768 525
732408 810140 468
103227 37271 351
630699 219217 509
161752 350945 443
794809 452715 509
551217 46765 470
568346 343001 470
697910 348699 509
313108 46903 443
141420 666250 509
550484 425812 470
828546 809720 450
911106 461847 525
462894 449950 444
121151 936247 525
400261 258824 441
794694 142928 509
694147 302282 509
911373 720918 525
429906 595722 470
649996 84240 509
914300 701951 525
42524 502088 449
483325 292017 449
503960 59888 449
605452 818398 509
927517 12935 525
434773 783338 509
716306 44938 509
142354 241502 443
422359 22774 449
683688 555272 509
719767 847419 525
361179 760661 509
137392 286642 443
219268 648336 509
665992 109811 509
68770 866387 525
457045 965508 525
589200 591363 359
522918 391773 470
589748 994930 525
233901 378375 441
207818 461694 449
568139 339849 470
595590 276732 470
136851 979637 525
635231 802794 504
650601 179190 509
